{
  "sizes": [
    {
      "slug": "s-1vcpu-512mb-10gb",
      "memory": 512,
      "vcpus": 1,
      "disk": 10,
      "transfer": 0.5,
      "price_monthly": 4,
      "price_hourly": 0.00595,
      "regions": [
        "ams3",
        "fra1",
        "nyc1",
        "sfo3",
        "sgp1",
        "syd1"
      ],
      "available": true,
      "description": "Basic",
      "networking_throughput": 2000,
      "disk_info": [
        {
          "type": "local",
          "size": {
            "amount": 10,
            "unit": "gib"
          }
        }
      ]
    },
    {
      "slug": "s-1vcpu-1gb",
      "memory": 1024,
      "vcpus": 1,
      "disk": 25,
      "transfer": 1,
      "price_monthly": 6,
      "price_hourly": 0.00893,
      "regions": [
        "ams3",
        "blr1",
        "fra1",
        "lon1",
        "nyc1",
        "nyc2",
        "nyc3",
        "sfo2",
        "sfo3",
        "sgp1",
        "syd1",
        "tor1"
      ],
      "available": true,
      "description": "Basic",
      "networking_throughput": 2000,
      "disk_info": [
        {
          "type": "local",
          "size": {
            "amount": 25,
            "unit": "gib"
          }
        }
      ]
    },
    {
      "slug": "s-1vcpu-1gb-amd",
      "memory": 1024,
      "vcpus": 1,
      "disk": 25,
      "transfer": 1,
      "price_monthly": 7,
      "price_hourly": 0.01042,
      "regions": [
        "ams3",
        "blr1",
        "fra1",
        "lon1",
        "nyc1",
        "nyc2",
        "nyc3",
        "sfo3",
        "sgp1",
        "syd1",
        "tor1"
      ],
      "available": true,
      "description": "Basic AMD",
      "networking_throughput": 2000,
      "disk_info": [
        {
          "type": "local",
          "size": {
            "amount": 25,
            "unit": "gib"
          }
        }
      ]
    },
    {
      "slug": "s-1vcpu-1gb-intel",
      "memory": 1024,
      "vcpus": 1,
      "disk": 25,
      "transfer": 1,
      "price_monthly": 7,
      "price_hourly": 0.01042,
      "regions": [
        "ams3",
        "blr1",
        "fra1",
        "lon1",
        "nyc1",
        "nyc2",
        "nyc3",
        "sfo3",
        "sgp1",
        "syd1",
        "tor1"
      ],
      "available": true,
      "description": "Basic Intel",
      "networking_throughput": 2000,
      "disk_info": [
        {
          "type": "local",
          "size": {
            "amount": 25,
            "unit": "gib"
          }
        }
      ]
    },
    {
      "slug": "s-1vcpu-1gb-35gb-intel",
      "memory": 1024,
      "vcpus": 1,
      "disk": 35,
      "transfer": 1,
      "price_monthly": 8,
      "price_hourly": 0.0119,
      "regions": [
        "ams3",
        "blr1",
        "fra1",
        "lon1",
        "nyc1",
        "nyc2",
        "nyc3",
        "sfo3",
        "sgp1",
        "syd1",
        "tor1"
      ],
      "available": true,
      "description": "Basic Intel",
      "networking_throughput": 2000,
      "disk_info": [
        {
          "type": "local",
          "size": {
            "amount": 35,
            "unit": "gib"
          }
        }
      ]
    },
    {
      "slug": "s-1vcpu-2gb",
      "memory": 2048,
      "vcpus": 1,
      "disk": 50,
      "transfer": 2,
      "price_monthly": 12,
      "price_hourly": 0.01786,
      "regions": [
        "ams3",
        "blr1",
        "fra1",
        "lon1",
        "nyc1",
        "nyc2",
        "nyc3",
        "sfo2",
        "sfo3",
        "sgp1",
        "syd1",
        "tor1"
      ],
      "available": true,
      "description": "Basic",
      "networking_throughput": 2000,
      "disk_info": [
        {
          "type": "local",
          "size": {
            "amount": 50,
            "unit": "gib"
          }
        }
      ]
    },
    {
      "slug": "s-1vcpu-2gb-amd",
      "memory": 2048,
      "vcpus": 1,
      "disk": 50,
      "transfer": 2,
      "price_monthly": 14,
      "price_hourly": 0.02083,
      "regions": [
        "ams3",
        "blr1",
        "fra1",
        "lon1",
        "nyc1",
        "nyc2",
        "nyc3",
        "sfo3",
        "sgp1",
        "syd1",
        "tor1"
      ],
      "available": true,
      "description": "Basic AMD",
      "networking_throughput": 2000,
      "disk_info": [
        {
          "type": "local",
          "size": {
            "amount": 50,
            "unit": "gib"
          }
        }
      ]
    },
    {
      "slug": "s-1vcpu-2gb-intel",
      "memory": 2048,
      "vcpus": 1,
      "disk": 50,
      "transfer": 2,
      "price_monthly": 14,
      "price_hourly": 0.02083,
      "regions": [
        "ams3",
        "blr1",
        "fra1",
        "lon1",
        "nyc1",
        "nyc2",
        "nyc3",
        "sfo3",
        "sgp1",
        "syd1",
        "tor1"
      ],
      "available": true,
      "description": "Basic Intel",
      "networking_throughput": 2000,
      "disk_info": [
        {
          "type": "local",
          "size": {
            "amount": 50,
            "unit": "gib"
          }
        }
      ]
    },
    {
      "slug": "s-1vcpu-2gb-70gb-intel",
      "memory": 2048,
      "vcpus": 1,
      "disk": 70,
      "transfer": 2,
      "price_monthly": 16,
      "price_hourly": 0.02381,
      "regions": [
        "ams3",
        "blr1",
        "fra1",
        "lon1",
        "nyc1",
        "nyc2",
        "nyc3",
        "sfo3",
        "sgp1",
        "syd1",
        "tor1"
      ],
      "available": true,
      "description": "Basic Intel",
      "networking_throughput": 2000,
      "disk_info": [
        {
          "type": "local",
          "size": {
            "amount": 70,
            "unit": "gib"
          }
        }
      ]
    },
    {
      "slug": "s-2vcpu-2gb",
      "memory": 2048,
      "vcpus": 2,
      "disk": 60,
      "transfer": 3,
      "price_monthly": 18,
      "price_hourly": 0.02679,
      "regions": [
        "ams3",
        "blr1",
        "fra1",
        "lon1",
        "nyc1",
        "nyc2",
        "nyc3",
        "sfo2",
        "sfo3",
        "sgp1",
        "syd1",
        "tor1"
      ],
      "available": true,
      "description": "Basic",
      "networking_throughput": 2000,
      "disk_info": [
        {
          "type": "local",
          "size": {
            "amount": 60,
            "unit": "gib"
          }
        }
      ]
    },
    {
      "slug": "s-2vcpu-2gb-amd",
      "memory": 2048,
      "vcpus": 2,
      "disk": 60,
      "transfer": 3,
      "price_monthly": 21,
      "price_hourly": 0.03125,
      "regions": [
        "ams3",
        "blr1",
        "fra1",
        "lon1",
        "nyc1",
        "nyc2",
        "nyc3",
        "sfo3",
        "sgp1",
        "syd1",
        "tor1"
      ],
      "available": true,
      "description": "Basic AMD",
      "networking_throughput": 2000,
      "disk_info": [
        {
          "type": "local",
          "size": {
            "amount": 60,
            "unit": "gib"
          }
        }
      ]
    },
    {
      "slug": "s-2vcpu-2gb-intel",
      "memory": 2048,
      "vcpus": 2,
      "disk": 60,
      "transfer": 3,
      "price_monthly": 21,
      "price_hourly": 0.03125,
      "regions": [
        "ams3",
        "blr1",
        "fra1",
        "lon1",
        "nyc1",
        "nyc2",
        "nyc3",
        "sfo3",
        "sgp1",
        "syd1",
        "tor1"
      ],
      "available": true,
      "description": "Basic Intel",
      "networking_throughput": 2000,
      "disk_info": [
        {
          "type": "local",
          "size": {
            "amount": 60,
            "unit": "gib"
          }
        }
      ]
    },
    {
      "slug": "s-2vcpu-2gb-90gb-intel",
      "memory": 2048,
      "vcpus": 2,
      "disk": 90,
      "transfer": 3,
      "price_monthly": 24,
      "price_hourly": 0.03571,
      "regions": [
        "ams3",
        "blr1",
        "fra1",
        "lon1",
        "nyc1",
        "nyc2",
        "nyc3",
        "sfo3",
        "sgp1",
        "syd1",
        "tor1"
      ],
      "available": true,
      "description": "Basic Intel",
      "networking_throughput": 2000,
      "disk_info": [
        {
          "type": "local",
          "size": {
            "amount": 90,
            "unit": "gib"
          }
        }
      ]
    },
    {
      "slug": "s-2vcpu-4gb",
      "memory": 4096,
      "vcpus": 2,
      "disk": 80,
      "transfer": 4,
      "price_monthly": 24,
      "price_hourly": 0.03571,
      "regions": [
        "ams3",
        "blr1",
        "fra1",
        "lon1",
        "nyc1",
        "nyc2",
        "nyc3",
        "sfo2",
        "sfo3",
        "sgp1",
        "syd1",
        "tor1"
      ],
      "available": true,
      "description": "Basic",
      "networking_throughput": 2000,
      "disk_info": [
        {
          "type": "local",
          "size": {
            "amount": 80,
            "unit": "gib"
          }
        }
      ]
    },
    {
      "slug": "s-2vcpu-4gb-amd",
      "memory": 4096,
      "vcpus": 2,
      "disk": 80,
      "transfer": 4,
      "price_monthly": 28,
      "price_hourly": 0.04167,
      "regions": [
        "ams3",
        "blr1",
        "fra1",
        "lon1",
        "nyc1",
        "nyc2",
        "nyc3",
        "sfo3",
        "sgp1",
        "syd1",
        "tor1"
      ],
      "available": true,
      "description": "Basic AMD",
      "networking_throughput": 2000,
      "disk_info": [
        {
          "type": "local",
          "size": {
            "amount": 80,
            "unit": "gib"
          }
        }
      ]
    },
    {
      "slug": "s-2vcpu-4gb-intel",
      "memory": 4096,
      "vcpus": 2,
      "disk": 80,
      "transfer": 4,
      "price_monthly": 28,
      "price_hourly": 0.04167,
      "regions": [
        "ams3",
        "blr1",
        "fra1",
        "lon1",
        "nyc1",
        "nyc2",
        "nyc3",
        "sfo3",
        "sgp1",
        "syd1",
        "tor1"
      ],
      "available": true,
      "description": "Basic Intel",
      "networking_throughput": 2000,
      "disk_info": [
        {
          "type": "local",
          "size": {
            "amount": 80,
            "unit": "gib"
          }
        }
      ]
    },
    {
      "slug": "s-2vcpu-4gb-120gb-intel",
      "memory": 4096,
      "vcpus": 2,
      "disk": 120,
      "transfer": 4,
      "price_monthly": 32,
      "price_hourly": 0.04762,
      "regions": [
        "ams3",
        "blr1",
        "fra1",
        "lon1",
        "nyc1",
        "nyc2",
        "nyc3",
        "sfo3",
        "sgp1",
        "syd1",
        "tor1"
      ],
      "available": true,
      "description": "Basic Intel",
      "networking_throughput": 2000,
      "disk_info": [
        {
          "type": "local",
          "size": {
            "amount": 120,
            "unit": "gib"
          }
        }
      ]
    },
    {
      "slug": "s-2vcpu-8gb-amd",
      "memory": 8192,
      "vcpus": 2,
      "disk": 100,
      "transfer": 5,
      "price_monthly": 42,
      "price_hourly": 0.0625,
      "regions": [
        "ams3",
        "blr1",
        "fra1",
        "lon1",
        "nyc1",
        "nyc2",
        "nyc3",
        "sfo3",
        "syd1",
        "tor1"
      ],
      "available": true,
      "description": "Basic AMD",
      "networking_throughput": 2000,
      "disk_info": [
        {
          "type": "local",
          "size": {
            "amount": 100,
            "unit": "gib"
          }
        }
      ]
    },
    {
      "slug": "c-2",
      "memory": 4096,
      "vcpus": 2,
      "disk": 25,
      "transfer": 4,
      "price_monthly": 42,
      "price_hourly": 0.0625,
      "regions": [
        "ams3",
        "blr1",
        "fra1",
        "lon1",
        "nyc1",
        "nyc2",
        "nyc3",
        "sfo2",
        "sfo3",
        "sgp1",
        "syd1",
        "tor1"
      ],
      "available": true,
      "description": "CPU-Optimized",
      "networking_throughput": 2000,
      "disk_info": [
        {
          "type": "local",
          "size": {
            "amount": 25,
            "unit": "gib"
          }
        }
      ]
    },
    {
      "slug": "s-2vcpu-8gb-160gb-intel",
      "memory": 8192,
      "vcpus": 2,
      "disk": 160,
      "transfer": 5,
      "price_monthly": 48,
      "price_hourly": 0.07143,
      "regions": [
        "ams3",
        "blr1",
        "fra1",
        "lon1",
        "nyc1",
        "nyc2",
        "nyc3",
        "sfo3",
        "sgp1",
        "syd1",
        "tor1"
      ],
      "available": true,
      "description": "Basic Intel",
      "networking_throughput": 2000,
      "disk_info": [
        {
          "type": "local",
          "size": {
            "amount": 160,
            "unit": "gib"
          }
        }
      ]
    }
  ],
  "links": {
    "pages": {
      "next": "https://api.digitalocean.com/v2/sizes?page=2&per_page=20",
      "last": "https://api.digitalocean.com/v2/sizes?page=2&per_page=20"
    }
  },
  "meta": {
    "total": 29
  }
}
